{"content":[{"brandName":"进口量","dealerId":"JXS1382A365F7D94350991D84AF23233FD7","dealerName":"111服务费率资金流服务费率资","dealerType":"数码家电","delGoodsNeedModify":0,"goodsClassify":"护肤,乳","goodsId":"SP4B314C0CC2404491B8497F64A43FA74B","goodsImageUrl":"http://dl.m2c2017.com/1head/20180730/LyDG174627.jpg","goodsName":"test所说的名称修改test所说的名称修改test所说的名称修改test所说的名称修改test所说","goodsPrice":"999999.99","goodsSku":[{"skuName":"","marketPrice":null,"supplyPrice":null,"photographPrice":"999999.99","availableNum":0,"skuId":"20180730174649182530"}],"goodsStatus":3,"logisticsType":1,"sellNum":15,"skuFlag":0,"stockNum":0,"strGoodsPrice":""},{"brandName":"进口量","dealerId":"JXS1382A365F7D94350991D84AF23233FD7","dealerName":"111服务费率资金流服务费率资","dealerType":"数码家电","delGoodsNeedModify":0,"goodsClassify":"衣服,男装","goodsId":"SPF7116965AC0844519996F50A63A2BDC7","goodsImageUrl":"http://dl.m2c2017.com/1head/20180612/Ny1b140440.jpg","goodsName":"testtest","goodsPrice":"1.00","goodsSku":[{"skuName":"1,d","marketPrice":null,"supplyPrice":null,"photographPrice":"1.00","availableNum":3,"skuId":"20180612140452562540"}],"goodsStatus":2,"logisticsType":2,"sellNum":0,"skuFlag":1,"stockNum":3,"strGoodsPrice":""},{"brandName":"teste1555sdfs","dealerId":"JXS1382A365F7D94350991D84AF23233FD7","dealerName":"111服务费率资金流服务费率资","dealerType":"数码家电","delGoodsNeedModify":0,"goodsClassify":"","goodsId":"SP59282DA85D734D7F81D35B3CC6514D91","goodsImageUrl":"http://dl.m2c2017.com/1head/20180517/r98Y105437.jpg","goodsName":"MTX","goodsPrice":"110.00","goodsSku":[{"skuName":"","marketPrice":"150.00","supplyPrice":null,"photographPrice":"110.00","availableNum":168,"skuId":"20180517105457803922"}],"goodsStatus":2,"logisticsType":0,"sellNum":40,"skuFlag":0,"stockNum":168,"strGoodsPrice":""},{"brandName":"teste1555sdfs","dealerId":"JXS1382A365F7D94350991D84AF23233FD7","dealerName":"111服务费率资金流服务费率资","dealerType":"数码家电","delGoodsNeedModify":0,"goodsClassify":"衣服,男装","goodsId":"SP3F890A7B313547258CAA595BBCB27B0F","goodsImageUrl":"http://dl.m2c2017.com/1head/20180510/9oAI195436.jpg","goodsName":"MTX2","goodsPrice":"100.00","goodsSku":[{"skuName":"10,16","marketPrice":"110.00","supplyPrice":null,"photographPrice":"100.00","availableNum":1000,"skuId":"20180510200706154831"},{"skuName":"10,15","marketPrice":"110.00","supplyPrice":null,"photographPrice":"100.00","availableNum":1000,"skuId":"20180510200706814860"},{"skuName":"10,14","marketPrice":"110.00","supplyPrice":null,"photographPrice":"100.00","availableNum":1000,"skuId":"20180510200706803952"},{"skuName":"10,13","marketPrice":"110.00","supplyPrice":null,"photographPrice":"100.00","availableNum":1000,"skuId":"20180510200706886415"},{"skuName":"10,12","marketPrice":"110.00","supplyPrice":null,"photographPrice":"100.00","availableNum":1000,"skuId":"20180510200706259520"},{"skuName":"10,11","marketPrice":"110.00","supplyPrice":null,"photographPrice":"100.00","availableNum":1000,"skuId":"20180510200706277408"},{"skuName":"9,16","marketPrice":"110.00","supplyPrice":null,"photographPrice":"100.00","availableNum":1000,"skuId":"20180510200706784343"},{"skuName":"9,15","marketPrice":"110.00","supplyPrice":null,"photographPrice":"100.00","availableNum":1000,"skuId":"20180510200706633453"},{"skuName":"9,14","marketPrice":"110.00","supplyPrice":null,"photographPrice":"100.00","availableNum":1000,"skuId":"20180510200706140393"},{"skuName":"9,13","marketPrice":"110.00","supplyPrice":null,"photographPrice":"100.00","availableNum":1000,"skuId":"20180510200706361337"},{"skuName":"9,12","marketPrice":"110.00","supplyPrice":null,"photographPrice":"100.00","availableNum":1000,"skuId":"20180510200706519197"},{"skuName":"9,11","marketPrice":"110.00","supplyPrice":null,"photographPrice":"100.00","availableNum":1000,"skuId":"20180510200706034791"},{"skuName":"8,16","marketPrice":"110.00","supplyPrice":null,"photographPrice":"100.00","availableNum":1000,"skuId":"20180510200706657648"},{"skuName":"8,15","marketPrice":"110.00","supplyPrice":null,"photographPrice":"100.00","availableNum":1000,"skuId":"20180510200706844929"},{"skuName":"8,14","marketPrice":"110.00","supplyPrice":null,"photographPrice":"100.00","availableNum":996,"skuId":"20180510200706666957"},{"skuName":"8,13","marketPrice":"110.00","supplyPrice":null,"photographPrice":"100.00","availableNum":1000,"skuId":"20180510200706620555"},{"skuName":"8,12","marketPrice":"110.00","supplyPrice":null,"photographPrice":"100.00","availableNum":1000,"skuId":"20180510200706576717"},{"skuName":"8,11","marketPrice":"110.00","supplyPrice":null,"photographPrice":"100.00","availableNum":1000,"skuId":"20180510200706264162"},{"skuName":"7,16","marketPrice":"110.00","supplyPrice":null,"photographPrice":"100.00","availableNum":1000,"skuId":"20180510200706629813"},{"skuName":"7,15","marketPrice":"110.00","supplyPrice":null,"photographPrice":"100.00","availableNum":1000,"skuId":"20180510200706974170"},{"skuName":"7,14","marketPrice":"110.00","supplyPrice":null,"photographPrice":"100.00","availableNum":996,"skuId":"20180510200706138137"},{"skuName":"7,13","marketPrice":"110.00","supplyPrice":null,"photographPrice":"100.00","availableNum":1000,"skuId":"20180510200706557495"},{"skuName":"7,12","marketPrice":"110.00","supplyPrice":null,"photographPrice":"100.00","availableNum":1000,"skuId":"20180510200706952127"},{"skuName":"7,11","marketPrice":"110.00","supplyPrice":null,"photographPrice":"100.00","availableNum":1000,"skuId":"20180510200706900613"},{"skuName":"6,16","marketPrice":"110.00","supplyPrice":null,"photographPrice":"100.00","availableNum":1000,"skuId":"20180510200706561412"},{"skuName":"6,15","marketPrice":"110.00","supplyPrice":null,"photographPrice":"100.00","availableNum":1000,"skuId":"20180510200706287483"},{"skuName":"6,14","marketPrice":"110.00","supplyPrice":null,"photographPrice":"100.00","availableNum":1000,"skuId":"20180510200706787522"},{"skuName":"6,13","marketPrice":"110.00","supplyPrice":null,"photographPrice":"100.00","availableNum":1000,"skuId":"20180510200706715188"},{"skuName":"6,12","marketPrice":"110.00","supplyPrice":null,"photographPrice":"100.00","availableNum":1000,"skuId":"20180510200706994767"},{"skuName":"6,11","marketPrice":"110.00","supplyPrice":null,"photographPrice":"100.00","availableNum":1000,"skuId":"20180510200706516783"},{"skuName":"5,16","marketPrice":"110.00","supplyPrice":null,"photographPrice":"100.00","availableNum":1000,"skuId":"20180510200706202431"},{"skuName":"5,15","marketPrice":"110.00","supplyPrice":null,"photographPrice":"100.00","availableNum":1000,"skuId":"20180510200706741299"},{"skuName":"5,14","marketPrice":"110.00","supplyPrice":null,"photographPrice":"100.00","availableNum":1000,"skuId":"20180510200706443696"},{"skuName":"5,13","marketPrice":"110.00","supplyPrice":null,"photographPrice":"100.00","availableNum":1000,"skuId":"20180510200706178016"},{"skuName":"5,12","marketPrice":"110.00","supplyPrice":null,"photographPrice":"100.00","availableNum":1000,"skuId":"20180510200706906446"},{"skuName":"5,11","marketPrice":"110.00","supplyPrice":null,"photographPrice":"100.00","availableNum":1000,"skuId":"20180510200706538282"},{"skuName":"4,16","marketPrice":"110.00","supplyPrice":null,"photographPrice":"100.00","availableNum":1000,"skuId":"20180510200706922598"},{"skuName":"4,15","marketPrice":"110.00","supplyPrice":null,"photographPrice":"100.00","availableNum":1000,"skuId":"20180510200706875850"},{"skuName":"4,14","marketPrice":"110.00","supplyPrice":null,"photographPrice":"100.00","availableNum":996,"skuId":"20180510200706346226"},{"skuName":"4,13","marketPrice":"110.00","supplyPrice":null,"photographPrice":"100.00","availableNum":1000,"skuId":"20180510200706820909"},{"skuName":"4,12","marketPrice":"110.00","supplyPrice":null,"photographPrice":"100.00","availableNum":1000,"skuId":"20180510200706516331"},{"skuName":"4,11","marketPrice":"110.00","supplyPrice":null,"photographPrice":"100.00","availableNum":1000,"skuId":"20180510200706585920"},{"skuName":"3,16","marketPrice":"110.00","supplyPrice":null,"photographPrice":"100.00","availableNum":1000,"skuId":"20180510200706679955"},{"skuName":"3,15","marketPrice":"110.00","supplyPrice":null,"photographPrice":"100.00","availableNum":1000,"skuId":"20180510200706203399"},{"skuName":"3,14","marketPrice":"110.00","supplyPrice":null,"photographPrice":"100.00","availableNum":1000,"skuId":"20180510200706777406"},{"skuName":"3,13","marketPrice":"110.00","supplyPrice":null,"photographPrice":"100.00","availableNum":1000,"skuId":"20180510200706491340"},{"skuName":"3,12","marketPrice":"110.00","supplyPrice":null,"photographPrice":"100.00","availableNum":1000,"skuId":"20180510200706240861"},{"skuName":"3,11","marketPrice":"110.00","supplyPrice":null,"photographPrice":"100.00","availableNum":1000,"skuId":"20180510200706317702"},{"skuName":"2,16","marketPrice":"110.00","supplyPrice":null,"photographPrice":"100.00","availableNum":1000,"skuId":"20180510200706367823"},{"skuName":"2,15","marketPrice":"110.00","supplyPrice":null,"photographPrice":"100.00","availableNum":996,"skuId":"20180510200706588559"},{"skuName":"2,14","marketPrice":"110.00","supplyPrice":null,"photographPrice":"100.00","availableNum":1000,"skuId":"20180510200706191291"},{"skuName":"2,13","marketPrice":"110.00","supplyPrice":null,"photographPrice":"100.00","availableNum":988,"skuId":"20180510200706281212"},{"skuName":"2,12","marketPrice":"110.00","supplyPrice":null,"photographPrice":"100.00","availableNum":1000,"skuId":"20180510200706152396"},{"skuName":"2,11","marketPrice":"110.00","supplyPrice":null,"photographPrice":"100.00","availableNum":0,"skuId":"20180510200706103245"},{"skuName":"1,16","marketPrice":"110.00","supplyPrice":null,"photographPrice":"100.00","availableNum":1000,"skuId":"20180510200706825386"},{"skuName":"1,15","marketPrice":"110.00","supplyPrice":null,"photographPrice":"100.00","availableNum":992,"skuId":"20180510200706801481"},{"skuName":"1,14","marketPrice":"110.00","supplyPrice":null,"photographPrice":"100.00","availableNum":948,"skuId":"20180510200706437598"},{"skuName":"1,13","marketPrice":"110.00","supplyPrice":null,"photographPrice":"100.00","availableNum":0,"skuId":"20180510200706345332"},{"skuName":"1,12","marketPrice":"110.00","supplyPrice":null,"photographPrice":"100.00","availableNum":0,"skuId":"20180510200706234410"},{"skuName":"1,11","marketPrice":"110.00","supplyPrice":null,"photographPrice":"100.00","availableNum":0,"skuId":"20180510200706167014"}],"goodsStatus":2,"logisticsType":0,"sellNum":88,"skuFlag":1,"stockNum":55912,"strGoodsPrice":""},{"brandName":"2品牌新连接test2","dealerId":"JXS1382A365F7D94350991D84AF23233FD7","dealerName":"111服务费率资金流服务费率资","dealerType":"数码家电","delGoodsNeedModify":0,"goodsClassify":"衣服,男装","goodsId":"SP69C311D350A046A2AF2338B2753093E4","goodsImageUrl":"http://dl.m2c2017.com/1head/20180420/PX09135624.jpg","goodsName":"test2222","goodsPrice":"100.00","goodsSku":[{"skuName":"s,四四四四四四四四四四,测试手段手动搜索手动","marketPrice":"120.00","supplyPrice":null,"photographPrice":"100.00","availableNum":95,"skuId":"20180420135709621986"}],"goodsStatus":2,"logisticsType":0,"sellNum":5,"skuFlag":1,"stockNum":95,"strGoodsPrice":""},{"brandName":"2品牌新连接test2","dealerId":"JXS856B850B468E4933A53657CA0BE186F2","dealerName":"商家2服务费率商家名11","dealerType":"休闲娱乐","delGoodsNeedModify":0,"goodsClassify":"家居,家具,沙发","goodsId":"SPE32D278647B74DA4A435CFE3F861F64B","goodsImageUrl":"http://dl.m2c2017.com/1head/20180416/0bBo161857.jpg","goodsName":"沙发回复卡萨回复手拉葫芦","goodsPrice":"599.00","goodsSku":[{"skuName":"","marketPrice":"800.00","supplyPrice":null,"photographPrice":"599.00","availableNum":134,"skuId":"20180416161907195710"}],"goodsStatus":2,"logisticsType":0,"sellNum":73,"skuFlag":0,"stockNum":134,"strGoodsPrice":""},{"brandName":"品牌test\\n品牌test\\n品牌test\\n品牌test","dealerId":"JXS1382A365F7D94350991D84AF23233FD7","dealerName":"111服务费率资金流服务费率资","dealerType":"数码家电","delGoodsNeedModify":0,"goodsClassify":"手机,iOS系统","goodsId":"SPAE927864F42845CD9507949AEE11DF30","goodsImageUrl":"http://dl.m2c2017.com/1head/20180419/tYbm112603.png","goodsName":"思考方式打开了附件是打开","goodsPrice":"1111.00","goodsSku":[{"skuName":"","marketPrice":"117.00","supplyPrice":null,"photographPrice":"1111.00","availableNum":100,"skuId":"20180321164910343296"}],"goodsStatus":2,"logisticsType":0,"sellNum":6,"skuFlag":0,"stockNum":100,"strGoodsPrice":""},{"brandName":"童可可","dealerId":"JXS1382A365F7D94350991D84AF23233FD7","dealerName":"111服务费率资金流服务费率资","dealerType":"数码家电","delGoodsNeedModify":0,"goodsClassify":"手机,Android系统","goodsId":"SP42755702E2D942CCBE2CA9DCB6839442","goodsImageUrl":"http://dl.m2c2017.com/1head/20180402/BnTw135102.png","goodsName":"test","goodsPrice":"100.00","goodsSku":[{"skuName":"1L,透明,5p","marketPrice":"200.00","supplyPrice":null,"photographPrice":"100.00","availableNum":15,"skuId":"20180402135112250204"},{"skuName":"1L,透明,6p","marketPrice":"200.00","supplyPrice":null,"photographPrice":"101.00","availableNum":0,"skuId":"20180409095656777492"},{"skuName":"1L,透明,7p","marketPrice":"200.00","supplyPrice":null,"photographPrice":"110.00","availableNum":100,"skuId":"20180409095656617178"}],"goodsStatus":2,"logisticsType":0,"sellNum":36,"skuFlag":1,"stockNum":115,"strGoodsPrice":""},{"brandName":"品牌test\\n品牌test\\n品牌test\\n品牌test","dealerId":"JXS09BC489DC3FF437782BBD8C9BA7ECE00","dealerName":"商家组测试商家B","dealerType":"数码家电","delGoodsNeedModify":0,"goodsClassify":"食品,小麦","goodsId":"SP39C3C55C928B432983B4EC122B4DAC04","goodsImageUrl":"http://dl.m2c2017.com/1head/20180208/0pyC111501.png","goodsName":"qwe","goodsPrice":"1.00","goodsSku":[{"skuName":"1","marketPrice":"1.00","supplyPrice":null,"photographPrice":"1.00","availableNum":0,"skuId":"20180208111505223805"}],"goodsStatus":3,"logisticsType":0,"sellNum":1,"skuFlag":1,"stockNum":0,"strGoodsPrice":""},{"brandName":"品牌test\\n品牌test\\n品牌test\\n品牌test","dealerId":"JXS8EB9833522E84893A6066365ACE2E819","dealerName":"商家组测试商家A","dealerType":"服饰鞋帽","delGoodsNeedModify":0,"goodsClassify":"家居,家具,电脑桌","goodsId":"SPB10F09DBE216430C9B709E4EDC513E7E","goodsImageUrl":"http://dl.m2c2017.com/1head/20180205/kFuG155018.jpg","goodsName":"A满10件换购","goodsPrice":"10.00","goodsSku":[{"skuName":"","marketPrice":"12.00","supplyPrice":"8.00","photographPrice":"10.00","availableNum":967,"skuId":"20180205155024315562"}],
  "goodsStatus":2,"logisticsType":0,"sellNum":46,"skuFlag":0,"stockNum":967,"strGoodsPrice":""}],"errorMessage":"","isLastPage":0,"pageCount":2,"pageNumber":1,"rows":10,"sign":"182baf60749e8fc44c2c639cb1b6ec09","status":200,"timestamp":"1539767514790","token":"","totalCount":14}
